<?xml version="1.0" encoding="UTF-8" standalone="no"?>
<!-- Generator: Adobe Illustrator 26.0.2, SVG Export Plug-In . SVG Version: 6.00 Build 0)  -->

<svg
   version="1.1"
   id="Livello_1"
   x="0px"
   y="0px"
   viewBox="0 0 506.68573 274.24237"
   xml:space="preserve"
   sodipodi:docname="4b3fdba1b7b0a8ed6a68c1c64d7d2c94.svg"
   width="506.68573"
   height="274.24237"
   xmlns:inkscape="http://www.inkscape.org/namespaces/inkscape"
   xmlns:sodipodi="http://sodipodi.sourceforge.net/DTD/sodipodi-0.dtd"
   xmlns="http://www.w3.org/2000/svg"
   xmlns:svg="http://www.w3.org/2000/svg"><defs
   id="defs8" /><sodipodi:namedview
   id="namedview6"
   pagecolor="#ffffff"
   bordercolor="#666666"
   borderopacity="1.0"
   inkscape:pageshadow="2"
   inkscape:pageopacity="0.0"
   inkscape:pagecheckerboard="0" />
<path
   id="sunrise"
   class="st0"
   d="m 68.305716,170.25452 -44.857468,-25.48719 20.389765,-35.68207 44.857445,25.4872 z M 170.25456,68.305721 l -25.4872,-44.85747 -35.68214,21.40922 25.48727,43.83802 z M 274.24234,-1.0000001e-7 H 232.44335 V 50.974401 h 41.79899 z M 398.61993,44.857471 l -36.7016,-21.40922 -25.48718,44.85747 36.70157,20.38977 z m 84.61758,99.909859 -20.38983,-35.68207 -44.85745,25.4872 21.40921,35.68206 z m -363.25814,87.67601 c 10.38204,-64.3819 66.72988,-114.08294 133.87323,-113.16321 53.0134,0 101.94886,31.60412 123.35807,80.53961 l 37.72106,-17.33133 C 387.40555,118.26069 323.17783,77.481101 253.8526,77.481101 c -89.60849,0 -164.371705,68.073909 -175.054063,154.962239 H 0 v 41.79904 h 506.68573 v -41.79904 z" />
</svg>
